{
    "name": "first-network-crdo",
    "version": "1.0.0",
    "client": {
        "organization": "Crdo",
        "connection": {
            "timeout": {
                "peer": {
                    "endorser": "300"
                }
            }
        }
    },
    "organizations": {
        "Crdo": {
            "mspid": "CrdoMSP",
            "peers": [
                "peer0.crdo.baw-network.com",
                "peer1.crdo.baw-network.com"
            ],
            "certificateAuthorities": [
                "ca.crdo.baw-network.com"
            ]
        }
    },
    "peers": {
        "peer0.crdo.baw-network.com": {
            "url": "grpcs://localhost:9051",
            "tlsCACerts": {
                "pem": "-----BEGIN CERTIFICATE-----\nMIICaDCCAg6gAwIBAgIRALGLVFaWU6RJ7toS0AodVKswCgYIKoZIzj0EAwIwfjEL\nMAkGA1UEBhMCVVMxEzARBgNVBAgTCkNhbGlmb3JuaWExFjAUBgNVBAcTDVNhbiBG\ncmFuY2lzY28xHTAbBgNVBAoTFGNyZG8uYmF3LW5ldHdvcmsuY29tMSMwIQYDVQQD\nExp0bHNjYS5jcmRvLmJhdy1uZXR3b3JrLmNvbTAeFw0yMDA5MTYwOTI1MDBaFw0z\nMDA5MTQwOTI1MDBaMH4xCzAJBgNVBAYTAlVTMRMwEQYDVQQIEwpDYWxpZm9ybmlh\nMRYwFAYDVQQHEw1TYW4gRnJhbmNpc2NvMR0wGwYDVQQKExRjcmRvLmJhdy1uZXR3\nb3JrLmNvbTEjMCEGA1UEAxMadGxzY2EuY3Jkby5iYXctbmV0d29yay5jb20wWTAT\nBgcqhkjOPQIBBggqhkjOPQMBBwNCAATrECDsgQLHdrnR/kbS1OcTA9vFLEQNKQnz\n7y0dqjq8XUs1BQsbg/HUnieHesyT8eELPK2jBrr8RlbsXvwLv4VFo20wazAOBgNV\nHQ8BAf8EBAMCAaYwHQYDVR0lBBYwFAYIKwYBBQUHAwIGCCsGAQUFBwMBMA8GA1Ud\nEwEB/wQFMAMBAf8wKQYDVR0OBCIEIDkIe/ztfXq+0y+2s+b9sAAwSVLbGd5IRAMb\nLBdCkHKjMAoGCCqGSM49BAMCA0gAMEUCIQDHnZeb7hsxyiR9SWXY1rNnXs0wraby\nozRFiwwV8CufmAIgY8D/bgq/cOICtkup0skDoZaQ8A0tkFEIIOd04haucXY=\n-----END CERTIFICATE-----\n"
            },
            "grpcOptions": {
                "ssl-target-name-override": "peer0.crdo.baw-network.com",
                "hostnameOverride": "peer0.crdo.baw-network.com"
            }
        },
        "peer1.crdo.baw-network.com": {
            "url": "grpcs://localhost:10051",
            "tlsCACerts": {
                "pem": "-----BEGIN CERTIFICATE-----\nMIICaDCCAg6gAwIBAgIRALGLVFaWU6RJ7toS0AodVKswCgYIKoZIzj0EAwIwfjEL\nMAkGA1UEBhMCVVMxEzARBgNVBAgTCkNhbGlmb3JuaWExFjAUBgNVBAcTDVNhbiBG\ncmFuY2lzY28xHTAbBgNVBAoTFGNyZG8uYmF3LW5ldHdvcmsuY29tMSMwIQYDVQQD\nExp0bHNjYS5jcmRvLmJhdy1uZXR3b3JrLmNvbTAeFw0yMDA5MTYwOTI1MDBaFw0z\nMDA5MTQwOTI1MDBaMH4xCzAJBgNVBAYTAlVTMRMwEQYDVQQIEwpDYWxpZm9ybmlh\nMRYwFAYDVQQHEw1TYW4gRnJhbmNpc2NvMR0wGwYDVQQKExRjcmRvLmJhdy1uZXR3\nb3JrLmNvbTEjMCEGA1UEAxMadGxzY2EuY3Jkby5iYXctbmV0d29yay5jb20wWTAT\nBgcqhkjOPQIBBggqhkjOPQMBBwNCAATrECDsgQLHdrnR/kbS1OcTA9vFLEQNKQnz\n7y0dqjq8XUs1BQsbg/HUnieHesyT8eELPK2jBrr8RlbsXvwLv4VFo20wazAOBgNV\nHQ8BAf8EBAMCAaYwHQYDVR0lBBYwFAYIKwYBBQUHAwIGCCsGAQUFBwMBMA8GA1Ud\nEwEB/wQFMAMBAf8wKQYDVR0OBCIEIDkIe/ztfXq+0y+2s+b9sAAwSVLbGd5IRAMb\nLBdCkHKjMAoGCCqGSM49BAMCA0gAMEUCIQDHnZeb7hsxyiR9SWXY1rNnXs0wraby\nozRFiwwV8CufmAIgY8D/bgq/cOICtkup0skDoZaQ8A0tkFEIIOd04haucXY=\n-----END CERTIFICATE-----\n"
            },
            "grpcOptions": {
                "ssl-target-name-override": "peer1.crdo.baw-network.com",
                "hostnameOverride": "peer1.crdo.baw-network.com"
            }
        }
    },
    "certificateAuthorities": {
        "ca.crdo.baw-network.com": {
            "url": "https://localhost:8054",
            "caName": "ca-crdo",
            "tlsCACerts": {
                "pem": "-----BEGIN CERTIFICATE-----\nMIICYjCCAgigAwIBAgIRAK3Rvtw2H18r7cgOmcFZkYYwCgYIKoZIzj0EAwIwezEL\nMAkGA1UEBhMCVVMxEzARBgNVBAgTCkNhbGlmb3JuaWExFjAUBgNVBAcTDVNhbiBG\ncmFuY2lzY28xHTAbBgNVBAoTFGNyZG8uYmF3LW5ldHdvcmsuY29tMSAwHgYDVQQD\nExdjYS5jcmRvLmJhdy1uZXR3b3JrLmNvbTAeFw0yMDA5MTYwOTI1MDBaFw0zMDA5\nMTQwOTI1MDBaMHsxCzAJBgNVBAYTAlVTMRMwEQYDVQQIEwpDYWxpZm9ybmlhMRYw\nFAYDVQQHEw1TYW4gRnJhbmNpc2NvMR0wGwYDVQQKExRjcmRvLmJhdy1uZXR3b3Jr\nLmNvbTEgMB4GA1UEAxMXY2EuY3Jkby5iYXctbmV0d29yay5jb20wWTATBgcqhkjO\nPQIBBggqhkjOPQMBBwNCAATVOu63Kw1VrQ/eTYHckM/oTOlkR570zjQV3IN8m8L5\nCy+NoDm0zrwYxrOuoU96Lr9Idasta4dqrIoMTSAPaIaao20wazAOBgNVHQ8BAf8E\nBAMCAaYwHQYDVR0lBBYwFAYIKwYBBQUHAwIGCCsGAQUFBwMBMA8GA1UdEwEB/wQF\nMAMBAf8wKQYDVR0OBCIEIBoLfsOKHSOiAgdrUjUvZKOGRrYzSiWtJ78wqohoCojE\nMAoGCCqGSM49BAMCA0gAMEUCIQDGOR4XKmJE/oqI3cqY0bXRgweXMx3os+Ni7woL\nE7EgYgIgPSOtyYXbpgxuEASC+7Kz7u9PeYCQpAb36A6oEUQNV2A=\n-----END CERTIFICATE-----\n"
            },
            "httpOptions": {
                "verify": false
            }
        }
    }
}
